initializing system
creating process null.hypo priority: 256
Loading executable 'null.hypo'
end of program reached
created process 6000
GPRs:	0	0	0	0	0	0	0	0	
Addr:	+0	+1	+2	+3	+4	+5	+6	+7	+8	+9
0001	60000	1	0000	0000	0000	0000	0000	0000	0000	0000	
0011	0000	0000	0000	0000	0000	0000	0000	0000	0000	0000	
0021	0000	0000	0000	0000	0000	0000	0000	0000	0000	0000	
0031	0000	0000	0000	0000	0000	0000	0000	0000	0000	0000	
Clock = 0
PCB starting at 6000:
GPRs:	0	0	0	0	0	0	0	0	
Addr:	+0	+1	+2	+3	+4	+5	+6	+7	+8	+9
6000	0000	1	1	0000	256	2000	10	0000	0000	0000	
6010	0000	0000	0000	0000	0000	0000	0000	0000	2000	1	
Clock = 0
interrupt [0-4]? 1
filename? prog.hypo
creating process prog.hypo priority: 128
Loading executable 'prog.hypo'
end of program reached
created process 6020
GPRs:	0	0	0	0	0	0	0	0	
Addr:	+0	+1	+2	+3	+4	+5	+6	+7	+8	+9
0014	51160	103	126000	1	71000	86	55012	11	126000	3	
0024	55011	12	51260	10	126000	4	71000	82	55011	13	
0034	51511	11160	1	52550	12	11560	1	52560	3	126000	
0044	8	71000	76	11560	1	52511	126000	8	71000	76	
Clock = 0
PCB starting at 6020:
GPRs:	0	0	0	0	0	0	0	0	
Addr:	+0	+1	+2	+3	+4	+5	+6	+7	+8	+9
6020	0000	2	1	0000	128	2010	10	0000	0000	0000	
6030	0000	0000	0000	0000	0000	0000	0000	0000	2010	14	
Clock = 0
Other processes
Ready Queue dump
start: 6020, size: 20
start: 6000, size: 20
Waiting Queue dump
none found
selecting 6020
executing program
creating child process 103 priority: 128
created process 6040
GPRs:	0	103	0	0	0	0	0	0	
Addr:	+0	+1	+2	+3	+4	+5	+6	+7	+8	+9
0103	126000	3	55011	100	126000	7	71000	184	55012	101	
0113	126000	0000	55022	102	11260	1	51422	11260	1	51112	
0123	126000	9	71000	153	21460	1	81400	120	51350	101	
0133	11360	1	52350	100	11360	1	52360	1	11360	1	
Clock = 2
PCB starting at 6040:
GPRs:	0	103	0	0	0	0	0	0	
Addr:	+0	+1	+2	+3	+4	+5	+6	+7	+8	+9
6040	0000	3	1	0000	128	2020	10	0000	0000	0000	
6050	0000	0000	0000	0000	0000	0000	0000	0000	2020	103	
Clock = 2
system call: allocate memory
PID: 2
input: gpr2 = size
output: gpr0 = return code, gpr1 = start address
enter character for pid 2: a
enter character for pid 2: b
enter character for pid 2: c
message queue empty, suspending process
Allocated stack memory
GPRs:	0	2	2030	1	0	2034	0	0	
Addr:	+0	+1	+2	+3	+4	+5	+6	+7	+8	+9
2010	0000	0000	0000	0000	0000	0000	0000	0000	0000	0000	
Clock = 163
Allocated message
GPRs:	0	2	2030	1	0	2034	0	0	
Addr:	+0	+1	+2	+3	+4	+5	+6	+7	+8	+9
2030	2	3	97	98	99	0000	0000	0000	0000	0000	
Clock = 163
interrupt [0-4]? 0
Other processes
Ready Queue dump
start: 6040, size: 20
start: 6020, size: 20
start: 6000, size: 20
Waiting Queue dump
none found
selecting 6040
executing program
print call: a
print call: b
print call: c
message queue empty, suspending process
Allocated stack memory
GPRs:	0	3	128	1	0	0	0	0	
Addr:	+0	+1	+2	+3	+4	+5	+6	+7	+8	+9
2020	0000	0000	0000	0000	0000	0000	0000	0000	0000	0000	
Clock = 359
Allocated message
GPRs:	0	3	128	1	0	0	0	0	
Addr:	+0	+1	+2	+3	+4	+5	+6	+7	+8	+9
2030	2	3	1	83	99	0000	0000	0000	0000	0000	
Clock = 359
interrupt [0-4]? 0
Other processes
Ready Queue dump
start: 6020, size: 20
start: 6040, size: 20
start: 6000, size: 20
Waiting Queue dump
none found
selecting 6020
executing program
system call: free memory
PID: 2
input: gpr1 = start address, gpr2 = size
output: gpr0 = return code
terminating child pid:3
terminating 6040
halting process
Allocated stack memory
GPRs:	1	3	10	1	0	2034	0	0	
Addr:	+0	+1	+2	+3	+4	+5	+6	+7	+8	+9
2010	0000	0000	0000	0000	0000	0000	0000	0000	0000	0000	
Clock = 401
Allocated message
GPRs:	1	3	10	1	0	2034	0	0	
Addr:	+0	+1	+2	+3	+4	+5	+6	+7	+8	+9
2030	2	3	1	83	99	0000	0000	0000	0000	0000	
Clock = 401
terminating 6020
interrupt [0-4]? 0
Other processes
Ready Queue dump
start: 6000, size: 20
Waiting Queue dump
none found
selecting 6000
executing program
Allocated stack memory
GPRs:	0	0	0	0	0	0	0	0	
Addr:	+0	+1	+2	+3	+4	+5	+6	+7	+8	+9
2000	0000	0000	0000	0000	0000	0000	0000	0000	0000	0000	
Clock = 601
Allocated message
GPRs:	0	0	0	0	0	0	0	0	
Addr:	+0	+1	+2	+3	+4	+5	+6	+7	+8	+9
2030	2	3	1	83	99	0000	0000	0000	0000	0000	
Clock = 601
interrupt [0-4]? 0
Other processes
Ready Queue dump
start: 6000, size: 20
Waiting Queue dump
none found
selecting 6000
executing program
Allocated stack memory
GPRs:	0	0	0	0	0	0	0	0	
Addr:	+0	+1	+2	+3	+4	+5	+6	+7	+8	+9
2000	0000	0000	0000	0000	0000	0000	0000	0000	0000	0000	
Clock = 801
Allocated message
GPRs:	0	0	0	0	0	0	0	0	
Addr:	+0	+1	+2	+3	+4	+5	+6	+7	+8	+9
2030	2	3	1	83	99	0000	0000	0000	0000	0000	
Clock = 801
interrupt [0-4]? 0
Other processes
Ready Queue dump
start: 6000, size: 20
Waiting Queue dump
none found
selecting 6000
executing program
Allocated stack memory
GPRs:	0	0	0	0	0	0	0	0	
Addr:	+0	+1	+2	+3	+4	+5	+6	+7	+8	+9
2000	0000	0000	0000	0000	0000	0000	0000	0000	0000	0000	
Clock = 1001
Allocated message
GPRs:	0	0	0	0	0	0	0	0	
Addr:	+0	+1	+2	+3	+4	+5	+6	+7	+8	+9
2030	2	3	1	83	99	0000	0000	0000	0000	0000	
Clock = 1001
interrupt [0-4]? 0
Other processes
Ready Queue dump
start: 6000, size: 20
Waiting Queue dump
none found
selecting 6000
executing program
Allocated stack memory
GPRs:	0	0	0	0	0	0	0	0	
Addr:	+0	+1	+2	+3	+4	+5	+6	+7	+8	+9
2000	0000	0000	0000	0000	0000	0000	0000	0000	0000	0000	
Clock = 1201
Allocated message
GPRs:	0	0	0	0	0	0	0	0	
Addr:	+0	+1	+2	+3	+4	+5	+6	+7	+8	+9
2030	2	3	1	83	99	0000	0000	0000	0000	0000	
Clock = 1201
interrupt [0-4]? 0
shutting down system...
terminating 6000
