Script started on Fri 16 Nov 2012 06:36:25 PM EST
$ ./rfclient
Usage: ./rfclient server-IP Address
$ ./rfclient 127.0.0.1
Calling RF clnt_create()
Copy remote server file to local client file
client filename: testfile_client
server filename: testfile
Trying rf_openfile_1()
RF open is sucessful. FD: 0
Trying RF read file.
rpc call is successful. Checking rpc return status from the server
Successful read from the server. Checking for end of file or not
RF read file successful with bytesRead = 64.
But I must explain to you how all this mistaken idea of denounci
rpc call is successful. Checking rpc return status from the server
Successful read from the server. Checking for end of file or not
RF read file successful with bytesRead = 64.
ng of a pleasure and praising pain was born and I will give you 
rpc call is successful. Checking rpc return status from the server
Successful read from the server. Checking for end of file or not
RF read file successful with bytesRead = 64.
a complete account of the system, and expound the actual teachin
rpc call is successful. Checking rpc return status from the server
Successful read from the server. Checking for end of file or not
RF read file successful with bytesRead = 64.
gs of the great explorer of the truth, the master-builder of hum
rpc call is successful. Checking rpc return status from the server
Successful read from the server. Checking for end of file or not
RF read file successful with bytesRead = 64.
an happiness. No one rejects, dislikes, or avoids pleasure itsel
rpc call is successful. Checking rpc return status from the server
Successful read from the server. Checking for end of file or not
RF read file successful with bytesRead = 64.
f, because it is pleasure, but because those who do not know how
rpc call is successful. Checking rpc return status from the server
Successful read from the server. Checking for end of file or not
RF read file successful with bytesRead = 64.
 to pursue pleasure rationally encounter consequences that are e
rpc call is successful. Checking rpc return status from the server
Successful read from the server. Checking for end of file or not
RF read file successful with bytesRead = 64.
xtremely painful. Nor again is there anyone who loves or pursues
rpc call is successful. Checking rpc return status from the server
Successful read from the server. Checking for end of file or not
RF read file successful with bytesRead = 64.
 or desires to obtain pain of itself, because it is pain, but oc
rpc call is successful. Checking rpc return status from the server
Successful read from the server. Checking for end of file or not
RF read file successful with bytesRead = 64.
casionally circumstances occur in which toil and pain can procur
rpc call is successful. Checking rpc return status from the server
Successful read from the server. Checking for end of file or not
RF read file successful with bytesRead = 64.
e him some great pleasure. To take a trivial example, which of u
rpc call is successful. Checking rpc return status from the server
Successful read from the server. Checking for end of file or not
RF read file successful with bytesRead = 64.
s ever undertakes laborious physical exercise, except to obtain 
rpc call is successful. Checking rpc return status from the server
Successful read from the server. Checking for end of file or not
RF read file successful with bytesRead = 64.
some advantage from it? But who has any right to find fault with
rpc call is successful. Checking rpc return status from the server
Successful read from the server. Checking for end of file or not
RF read file successful with bytesRead = 64.
 a man who chooses to enjoy a pleasure that has no annoying cons
rpc call is successful. Checking rpc return status from the server
Successful read from the server. Checking for end of file or not
RF read file successful with bytesRead = 64.
equences, or one who avoids a pain that produces no resultant pl
rpc call is successful. Checking rpc return status from the server
Successful read from the server. Checking for end of file or not
RF read file successful with bytesRead = 64.
easure?
On the other hand, we denounce with righteous indignatio
rpc call is successful. Checking rpc return status from the server
Successful read from the server. Checking for end of file or not
RF read file successful with bytesRead = 64.
n and dislike men who are so beguiled and demoralized by the cha
rpc call is successful. Checking rpc return status from the server
Successful read from the server. Checking for end of file or not
RF read file successful with bytesRead = 64.
rms of pleasure of the moment, so blinded by desire, that they c
rpc call is successful. Checking rpc return status from the server
Successful read from the server. Checking for end of file or not
RF read file successful with bytesRead = 64.
annot foresee the pain and trouble that are bound to ensue; and 
rpc call is successful. Checking rpc return status from the server
Successful read from the server. Checking for end of file or not
RF read file successful with bytesRead = 64.
equal blame belongs to those who fail in their duty through weak
rpc call is successful. Checking rpc return status from the server
Successful read from the server. Checking for end of file or not
RF read file successful with bytesRead = 64.
ness of will, which is the same as saying through shrinking from
rpc call is successful. Checking rpc return status from the server
Successful read from the server. Checking for end of file or not
RF read file successful with bytesRead = 64.
 toil and pain. These cases are perfectly simple and easy to dis
rpc call is successful. Checking rpc return status from the server
Successful read from the server. Checking for end of file or not
RF read file successful with bytesRead = 64.
tinguish. In a free hour, when our power of choice is untrammele
rpc call is successful. Checking rpc return status from the server
Successful read from the server. Checking for end of file or not
RF read file successful with bytesRead = 64.
d and when nothing prevents our being able to do what we like be
rpc call is successful. Checking rpc return status from the server
Successful read from the server. Checking for end of file or not
RF read file successful with bytesRead = 64.
st, every pleasure is to be welcomed and every pain avoided. But
rpc call is successful. Checking rpc return status from the server
Successful read from the server. Checking for end of file or not
RF read file successful with bytesRead = 64.
 in certain circumstances and owing to the claims of duty or the
rpc call is successful. Checking rpc return status from the server
Successful read from the server. Checking for end of file or not
RF read file successful with bytesRead = 64.
 obligations of business it will frequently occur that pleasures
rpc call is successful. Checking rpc return status from the server
Successful read from the server. Checking for end of file or not
RF read file successful with bytesRead = 64.
 have to be repudiated and annoyances accepted. The wise man the
rpc call is successful. Checking rpc return status from the server
Successful read from the server. Checking for end of file or not
RF read file successful with bytesRead = 64.
refore always holds in these matters to this principle of select
rpc call is successful. Checking rpc return status from the server
Successful read from the server. Checking for end of file or not
RF read file successful with bytesRead = 64.
ion: he rejects pleasures to secure other greater pleasures, or 
rpc call is successful. Checking rpc return status from the server
Successful read from the server. Checking for end of file or not
RF read file successful with bytesRead = 45.
else he endures pains to avoid worse pains. 

rpc call is successful. Checking rpc return status from the server
Successful read from the server. Checking for end of file or not
ERROR Bytes read is zero or negative, bytesRead = 0
Calling RF close file.
RF close file successful.
Copy file from client to server
client filename: testi file_client
server filename: testfile_server
Trying rf_openfile_1()
RF open is successful. FD: 0
But I must explain to you how all this mistaken idea of denounci
RF write successful
ng of a pleasure and praising pain was born and I will give you 
RF write successful
a complete account of the system, and expound the actual teachin
RF write successful
gs of the great explorer of the truth, the master-builder of hum
RF write successful
an happiness. No one rejects, dislikes, or avoids pleasure itsel
RF write successful
f, because it is pleasure, but because those who do not know how
RF write successful
 to pursue pleasure rationally encounter consequences that are e
RF write successful
xtremely painful. Nor again is there anyone who loves or pursues
RF write successful
 or desires to obtain pain of itself, because it is pain, but oc
RF write successful
casionally circumstances occur in which toil and pain can procur
RF write successful
e him some great pleasure. To take a trivial example, which of u
RF write successful
s ever undertakes laborious physical exercise, except to obtain 
RF write successful
some advantage from it? But who has any right to find fault with
RF write successful
 a man who chooses to enjoy a pleasure that has no annoying cons
RF write successful
equences, or one who avoids a pain that produces no resultant pl
RF write successful
easure?
On the other hand, we denounce with righteous indignatio
RF write successful
n and dislike men who are so beguiled and demoralized by the cha
RF write successful
rms of pleasure of the moment, so blinded by desire, that they c
RF write successful
annot foresee the pain and trouble that are bound to ensue; and 
RF write successful
equal blame belongs to those who fail in their duty through weak
RF write successful
ness of will, which is the same as saying through shrinking from
RF write successful
 toil and pain. These cases are perfectly simple and easy to dis
RF write successful
tinguish. In a free hour, when our power of choice is untrammele
RF write successful
d and when nothing prevents our being able to do what we like be
RF write successful
st, every pleasure is to be welcomed and every pain avoided. But
RF write successful
 in certain circumstances and owing to the claims of duty or the
RF write successful
 obligations of business it will frequently occur that pleasures
RF write successful
 have to be repudiated and annoyances accepted. The wise man the
RF write successful
refore always holds in these matters to this principle of select
RF write successful
ion: he rejects pleasures to secure other greater pleasures, or 
RF write successful
else he endures pains to avoid worse pains. 

RF write successful
RF close file successful.
Calling RF close file.
Exiting main test program.

$ exit

Script done on Fri 16 Nov 2012 06:37:55 PM EST
